-64 -48 -56 -56 -64 664
-40 944
-40 -32 -64 -48 -48 720
-56 -32 16 -48 -56 -64 672
-32 -40 -64 -32 -40 744
-48 -32 16 -32 56 -64 696
-32 -40 904
-32 8 -32 896
-48 -64 -48 -32 768
56 -48 -40 -32 -32 -64 -48 616
64 -64 -64 -64 -48 648
-56 928
-32 -56 -56 -56 760
-56 928
32 -56 -64 -48 -40 712
-40 -40 896
-48 -40 888
-48 936
-56 40 -56 816
-40 -56 -56 -48 760
-56 -48 -40 -32 -32 -64 -32 632
-32 -48 -64 -56 -40 712
-48 -48 -56 -64 -40 696
