27

-10
-7
-5
6
3
-4
10
-5
-4
2
-6
12

10
11
-10
-1
-7
-2

1
3
5
-4
-7
8
-5
15
4
2

-3
-6
-1
-6
11
-3
11
3
2
-7
2

2
3
-1
6
11
-7

-4
15
-7
-9
4
13
7
2
2
10
-3

2
3
15
15
12

-2
-2
-9
6
5
7
1
5

8
6
8
-9
-9
-6
6
14
-7

-10
5
13
-8
6
7
-1
3
-10
4
4

-5
-4
6
5
-7
8
-5

4
-8
9
-5
13
-2

1
-3
-8
-1
-10
-7
-2

3
9
10
-3
7
-10
-2
1
1

7
4
15
-2
-2
11
15
10
-3
-1
-7

-8
-9
9
-8
13

7
-4
-2
6
6

-7
13
1
8
-8

1
4
11
-2
2

11
-4
6
3
-5
11
2
-8

-3
5
-8
-10
13
-6

-8
13
-10
2
-10
-1
4
-5
14

6
4
-10
-6
-4

-5
2
12
10
9
12
-4
13

-2
11
3
2
-6
3
4

14
-8
-2
-8
-8
-7
15
2

10
-10
-6
-4
2
6
9
3
13
-4
4
