30

5
4
-4
-7
2
-1
-10
6
-8
6
6
5

8
5
-3
-7
7
2
-9
5
-7
-6
-1
5

2
7

6

-1
-9
3
-2
5
3
4
4

1

4
2
6
8
-2

1
7
-7
4
-3
4
5
-4

-9

6
3
3
3
-1
7
1
-3
4
7
-6
-8
-4

6
-3
-6
5
-8

-7
2
-10

2
-5
-2
3

7
8
7
3
-5
-9
5
2
-4
1
8
4

6
6
-4
3
8
-2
6
6
-8
-4
8
-10
-3

-5
-7
4
-6
-8
8

1
5
-5
-8
-8
1

-10
7
-2
3
-1
-7
-4
3
-7

4
5
8
1

-8
7
-5
6
6
-1
7
5
-2
-5
-10

-3
3
-5
4
8
5
1
3
6
-6
2
8

-6
6
3
-7
-3
2
4
1
-10
6
-1

-2
-3
-10
-9
8
-3
-2
6

7
-2
-3
-10
-4
4
4
-5
8

-5
-4

6

-8
-5

-6
8
-2
5
6
-1
8
-4
5

-7
-9
-2
3
-7
-6
-5

3
6
8
5
8
-7
-3
-7
3
-8
-5
-10
-10
