-48 -64 -80 776
-16 968
-32 952
992
-112 -48 -56 -96 648
-8 -16 952
-16 96 -48 -64 -56 -96 -24 -112 416
-16 -88 -96 768
-64 920
-96 888
-16 80 -40 832
-56 -120 -72 720
-120 -8 848
-72 -32 -96 -48 -48 8 -112 120 -104 280
-8 976
-64 -40 120 -88 24 -56 -120 424
-104 -16 -64 -72 704
-88 -96 -96 688
-8 32 -24 -120 -8 -64 48 -120 -56 440
992
-96 888
992
-120 -80 -48 -32 680
-80 -40 856
-8 976
-32 -56 -40 24 -24 776
-112 88 -8 -56 -112 576
-16 -120 -64 -8 -40 704
56 -120 -88 -96 600
