29

-2
6
-10
-6
-7
-5
8
-6
10
-4
-8
-9

2

-6
4

-5
-9

-2
14
6
7
12
-5

-3
1
-9
2
-6

-8
15
6
-9
8
3
-4
7
12
3
14
-1
2

-6
-9
2
11
-4
-3
-5
-10
12
13
-10
-4

8
-9

12
-9

13
-10
5
-8
-9
-9
-1
-6
-4
2
-7
2
-2

7
-3
-3
15
9
5
-10
-4

-8
-6
-6
-8
-8
-7
15
3
-10
-2
-2
1

9
-10
4
-5
12
-7
6
8
14
15
-5
13
-6
6

-5
1

-8
8
5
-3
-9
15
11
3
7
15
-3
-4
-1
8

-1
-3
-6
13
2
-9
8
9
-6

-7
11
12
-6
-7
12

6
3
15
-6
1
8
6
15
-1
7
1
-6

-5

-8
12
-7

-10

-4
15
10
6
4

-9
-9
10
5
-9

-2
-6
1
-4
-7

-6
4
7
5
-6
-4
3
-6
-9
3
-4

-3
-10
14
-5
-9
11
1
-5
7
14
-10
-2
1
-2

2
15
-10
8
1
5

7
15
-9
-1
11
-7
5
-1
-4
12
